…
```r
library(mavis)
```
## Datasets included in `mavis`
`mavis` comes with two of the published data sets, `yeast` and `ups`, published in @berg2019evaluation (details can be found there; please cite accordingly if you use these data in your work).
Both datasets are quantified with Progenesis.
The `ups` data sets is a global proteomics dataset without reducing peptides to proteins with either *Chlamydomonas reinhardtii* (chlamy) peptides with the same concentration in all samples.
The `ups` is spiked-in with three different concentrations of the Universal Proteomics Standard Set 1 (UPS1) with four replicates each.
The `yeast` data was generated by extracting reversibly oxidized cysteines in *Saccharomyces cerevisiae* or chlamy where the yeast extraction was added in two different concentrations and chlamy in the same in all samples.
The `yeast` data is therefore a lot noisier than the `ups` data.
The yeast data looks as follows:

```r
yeast
#> # A tibble: 2,235 × 7
#>    identifier                               ng50_1 ng50_2 ng50_3 ng100_1 ng100_2 ng100_3
#>    <chr>                                     <dbl>  <dbl>  <dbl>   <dbl>   <dbl>   <dbl>
#>  1 Cre01.g000450.t1.2|PACid:30788617|--321   77.4    78.1   76.4    11.3    5.99    NA  
#>  2 Cre01.g000800.t1.2|PACid:30788536|--66   247.    255.   245.    225.   227.     231. 
#>  3 Cre01.g002050.t1.1|PACid:30789101|--408   60.1    43.2   69.9   133.   113.     118. 
#>  4 Cre01.g002300.t1.2|PACid:30788660|--168   90.8    74.9   55.1    96.8   90.1     76.7
#>  5 Cre01.g002300.t1.2|PACid:30788660|--40   932.   1096.   925.   1179.  1377.    1335. 
#>  6 Cre01.g002300.t1.2|PACid:30788660|--69   537.    469.   369.   1106.  1127.    1099. 
#>  7 Cre01.g004350.t1.2|PACid:30788641|--148   90.6   110.    70.6   119.    94.5     81.0
#>  8 Cre01.g004500.t1.2|PACid:30789545|--270    3.56   NA     NA      99.0  111.      81.0
#>  9 Cre01.g004500.t1.2|PACid:30789545|--355 4376.   4311.  3952.   3901.  3643.    3697. 
#> 10 Cre01.g004500.t1.2|PACid:30789545|--402  271.    123.    32.0   787.   799.     785. 
#> # ℹ 2,225 more rows
```
where the `identifier` is a column that uniquely maps each cysteine to the observations in `ng50_*` or `ng100_*` (which are the relative concentrations the yeast cysteines were spiked in with) and the integer at the end indicates different repeated experiments.
The ups data looks as follows:

```r
ups
#> # A tibble: 10,599 × 13
#>    identifier                    fmol25_1 fmol25_2 fmol25_3 fmol25_4 fmol50_1 fmol50_2 fmol50_3 fmol50_4 fmol100_1 fmol100_2 fmol100_3 fmol100_4
#>    <chr>                            <dbl>    <dbl>    <dbl>    <dbl>    <dbl>    <dbl>    <dbl>    <dbl>     <dbl>     <dbl>     <dbl>     <dbl>
#>  1 Cre01.g000350.t1.1|PACid:307…   695.     674.      689.     694.     741.     739.     733.     796.      644.      675.      715.      735. 
#>  2 Cre01.g000350.t1.1|PACid:307…   736.     636.      657.     608.     793.     783.     694.     734.      654.      642.      619.      613. 
#>  3 Cre01.g000350.t1.1|PACid:307…   681.     727.      638.     647.     732.     726.     654.     661.      628.      694.      607.      684. 
#>  4 Cre01.g000350.t1.1|PACid:307…   491.     448.      463.     444.     372.     408.     408.     475.      413.      389.      476.      433. 
#>  5 Cre01.g000900.t1.2|PACid:307…     7.90     1.19     NA       26.9     NA       33.4     NA       NA        NA        NA        NA        NA  
#>  6 Cre01.g000900.t1.2|PACid:307…   106.      82.6     102.      96.6     84.3     97.3     93.1     90.0      91.2      91.2      86.6     108. 
#>  7 Cre01.g000900.t1.2|PACid:307…    39.3     64.5      15.3     60.2     31.0     29.2     38.5     57.6      35.5      51.0      41.1      47.7
#>  8 Cre01.g001100.t1.2|PACid:307…   694.     664.      530.     453.     617.     566.     518.     275.      581.      513.      488.      449. 
#>  9 Cre01.g001100.t1.2|PACid:307…   525.     601.      673.     618.     631.     509.     669.     593.      530.      626.      635.      680. 
#> 10 Cre01.g001100.t1.2|PACid:307…   743.     671.      680.     636.     664.     667.     687.     649.      679.      624.      762.      689. 
#> # ℹ 10,589 more rows
```
…
```r
yeast_grid
#> # A tibble: 400 × 5
#>         h1      h2 formula       s clustered_data         
#>      <dbl>   <dbl> <list>    <dbl> <list>                 
#>  1 0.00782 0.213   <formula>  426. <spc_tbl_ [2,235 × 11]>
#>  2 0.110   0.213   <formula>  397. <spc_tbl_ [2,235 × 11]>
#>  3 0.00782 0.315   <formula>  374. <spc_tbl_ [2,235 × 11]>
#>  4 0.00782 0.418   <formula>  365. <spc_tbl_ [2,235 × 11]>
#>  5 0.213   0.315   <formula>  341. <spc_tbl_ [2,235 × 11]>
#>  6 0.00782 0.00782 <formula>  332. <spc_tbl_ [2,235 × 11]>
#>  7 0.00782 0.110   <formula>  331. <spc_tbl_ [2,235 × 11]>
#>  8 0.110   0.00782 <formula>  330. <spc_tbl_ [2,235 × 11]>
#>  9 0.110   0.520   <formula>  328. <spc_tbl_ [2,235 × 11]>
#> 10 0.110   0.418   <formula>  322. <spc_tbl_ [2,235 × 11]>
#> # ℹ 390 more rows
…
```r
yeast_multi_imputation_results$imputed_data[[5]]
#> # A tibble: 2,235 × 11
#>    identifier                              ng50_1 ng50_2 ng50_3 ng100_1 ng100_2 ng100_3  mean    sd c       sd_p
#>    <chr>                                    <dbl>  <dbl>  <dbl>   <dbl>   <dbl>   <dbl> <dbl> <dbl> <chr>  <dbl>
#>  1 Cre01.g000450.t1.2|PACid:30788617|--321   6.29   6.29   6.36    3.42    2.53    4.58  4.98 1.86  c     0.364 
#>  2 Cre01.g000800.t1.2|PACid:30788536|--66    7.97   8.00   8.05    7.74    7.78    7.78  7.88 0.134 a     0.0328
#>  3 Cre01.g002050.t1.1|PACid:30789101|--408   5.93   5.44   6.24    6.97    6.77    6.82  6.36 0.601 b     0.295 
#>  4 Cre01.g002300.t1.2|PACid:30788660|--168   6.53   6.23   5.89    6.52    6.45    6.19  6.30 0.246 a     0.254 
#>  5 Cre01.g002300.t1.2|PACid:30788660|--40    9.89  10.1    9.96   10.1    10.4    10.3  10.1  0.192 a     0.121 
#>  6 Cre01.g002300.t1.2|PACid:30788660|--69    9.09   8.88   8.64   10.0    10.1    10.0   9.46 0.665 b     0.162 
#>  7 Cre01.g004350.t1.2|PACid:30788641|--148   6.52   6.78   6.25    6.82    6.51    6.27  6.53 0.241 a     0.269 
#>  8 Cre01.g004500.t1.2|PACid:30789545|--270   1.85   1.59   1.75    6.55    6.74    6.27  5.35 2.34  c     0.234 
#>  9 Cre01.g004500.t1.2|PACid:30789545|--355  12.1   12.1   12.1    11.9    11.8    11.8  11.9  0.155 a     0.0346
#> 10 Cre01.g004500.t1.2|PACid:30789545|--402   8.10   6.95   5.11    9.54    9.59    9.55  8.14 1.83  c     1.07  
#> # ℹ 2,225 more rows
yeast_multi_imputation_results$limma_results[[5]]
#> # A tibble: 2,235 × 5
#>    identifier                                  lfc  mean    p_val comparison   
#>    <chr>                                     <dbl> <dbl>    <dbl> <chr>        
#>  1 Cre06.g263450.t1.2|PACid:30779125|--303    3.53 12.1  6.80e-10 ng100 vs ng50
#>  2 sp|P00549|KPYK1_YEAST--418                 3.16 13.4  1.37e- 9 ng100 vs ng50
#>  3 Cre02.g114600.t1.2|PACid:30784840|--172    2.16 12.4  3.76e- 9 ng100 vs ng50
#>  4 gi|41179066|ref|NP_958423.1|--48-51-54-58  2.38 12.6  3.94e- 9 ng100 vs ng50
#>  5 Cre09.g386650.t1.2|PACid:30781165|--257    2.07 12.1  7.75e- 9 ng100 vs ng50
#>  6 Cre10.g420750.t1.2|PACid:30790763|--50-53  4.16  9.47 3.04e- 9 ng100 vs ng50
#>  7 Cre02.g120150.t1.2|PACid:30786468|--128    1.80 12.6  1.12e- 8 ng100 vs ng50
#>  8 Cre03.g182551.t1.2|PACid:30787991|--130    1.07 14.8  1.13e- 8 ng100 vs ng50
#>  9 sp|P05759|RS27A_YEAST--121-126             1.76 11.8  1.72e- 8 ng100 vs ng50
#> 10 sp|P00358|G3P2_YEAST--150                  1.06 12.1  2.33e- 8 ng100 vs ng50
#> # ℹ 2,225 more rows
```
…
