Baldur-Tutorial • mavis
…
yeast_grid
#> # A tibble: 400 × 5
#>         h1      h2 formula       s clustered_data       
#>      <dbl>   <dbl> <list>    <dbl> <list>               
#>  1 0.0875  0.250   <formula>  280. <tibble [2,235 × 11]>
#>  2 0.0875  0.331   <formula>  262. <tibble [2,235 × 11]>
#>  3 0.0875  0.169   <formula>  252. <tibble [2,235 × 11]>
#>  4 0.00620 0.331   <formula>  220. <tibble [2,235 × 11]>
#>  5 0.169   0.331   <formula>  215. <tibble [2,235 × 11]>
#>  6 0.0875  0.413   <formula>  211. <tibble [2,235 × 11]>
#>  7 0.00620 0.250   <formula>  208. <tibble [2,235 × 11]>
#>  8 0.00620 0.413   <formula>  198. <tibble [2,235 × 11]>
#>  9 0.00620 0.00620 <formula>  188. <tibble [2,235 × 11]>
#> 10 0.00620 0.0875  <formula>  188. <tibble [2,235 × 11]>
#> # ℹ 390 more rows
…
