Ensemble Tutorial • mavis
…
# Look at the top parameters
ups_grid
#> # A tibble: 400 × 5
#>         h1      h2 formula        s clustered_data          
#>      <dbl>   <dbl> <list>     <dbl> <list>                  
#>  1 0.00724 0.102   <formula> 13587. <spc_tbl_ [10,599 × 16]>
#>  2 0.00724 0.197   <formula> 13468. <spc_tbl_ [10,599 × 16]>
#>  3 0.102   0.00724 <formula> 13381. <spc_tbl_ [10,599 × 16]>
#>  4 0.00724 0.00724 <formula> 13334. <spc_tbl_ [10,599 × 16]>
#>  5 0.00724 0.292   <formula> 13197. <spc_tbl_ [10,599 × 16]>
#>  6 0.102   0.102   <formula> 13112. <spc_tbl_ [10,599 × 16]>
#>  7 0.102   0.197   <formula> 12727. <spc_tbl_ [10,599 × 16]>
#>  8 0.197   0.00724 <formula> 12601. <spc_tbl_ [10,599 × 16]>
#>  9 0.00724 0.482   <formula> 12303. <spc_tbl_ [10,599 × 16]>
#> 10 0.197   0.102   <formula> 12260. <spc_tbl_ [10,599 × 16]>
#> # ℹ 390 more rows
…
For the UPS-DS (as defined here) there are three comparisons, we
could run two parallel instances each with 4 parallel chains (eight
total in parellel) to speed up the process. But since I decided to use
nine cores, I can run three chains on three parallel instances so that
all comparisons can be ran at the same time.

ups_ens_results <- ups_ens$run_ensemble(parallel_chains = 3,
                                        parallel_runs = 3,
                                        # Additional arguments to rstan::sample
                                        # to adjust for running one chain less
                                        chains = 3, iter = 2400, warmup = 1000
)
ups_ens_results
#> # A tibble: 31,797 × 5
#>    identifier                                                  comparison        p_val n_eff  Rhat
#>    <chr>                                                       <chr>             <dbl> <dbl> <dbl>
#>  1 Cre01.g000350.t1.1|PACid:30788481|--AVLLFATGSGISPLR         fmol25 vs fmol100 0.700 2064.  1.00
#>  2 Cre01.g000350.t1.1|PACid:30788481|--AVLLFATGSGISPLR         fmol25 vs fmol100 0.820 2020.  1.00
#>  3 Cre01.g000350.t1.1|PACid:30788481|--AVLLFATGSGISPLR         fmol25 vs fmol100 0.920 2312.  1.00
#>  4 Cre01.g000350.t1.1|PACid:30788481|--GFALDRLPASTTR           fmol25 vs fmol100 0.623 2330.  1.00
#>  5 Cre01.g000350.t1.1|PACid:30788481|--GFALDRLPASTTR           fmol25 vs fmol100 0.590 1818.  1.00
#>  6 Cre01.g000350.t1.1|PACid:30788481|--GFALDRLPASTTR           fmol25 vs fmol100 0.966 2384.  1.00
#>  7 Cre01.g000350.t1.1|PACid:30788481|--VVIDVGAPLAAGYTVPGQFVQVK fmol25 vs fmol100 0.886 1524.  1.00
#>  8 Cre01.g000350.t1.1|PACid:30788481|--VVIDVGAPLAAGYTVPGQFVQVK fmol25 vs fmol100 0.623 2112.  1.00
#>  9 Cre01.g000350.t1.1|PACid:30788481|--VVIDVGAPLAAGYTVPGQFVQVK fmol25 vs fmol100 0.764 2686.  1.00
#> 10 Cre01.g000350.t1.1|PACid:30788481|--VVSVYSESK               fmol25 vs fmol100 0.720 1832.  1.00
#> # ℹ 31,787 more rows
…
